{
  "kind": "Listing",
  "data": {
    "after": "t3_7iey6q",
    "whitelist_status": "all_ads",
    "facets": {},
    "modhash": "f2m831hn5pfe8bb577f8c2e751bc6e5a86f9ac790d8ecae976",
    "children": [
      {
        "kind": "t3",
        "data": {
          "domain": "time.com",
          "approved_at_utc": null,
          "mod_reason_by": null,
          "banned_by": null,
          "num_reports": null,
          "subreddit_id": "t5_2qh13",
          "thumbnail_width": 140,
          "subreddit": "worldnews",
          "selftext_html": null,
          "selftext": "",
          "likes": null,
          "suggested_sort": null,
          "user_reports": [],
          "secure_media": null,
          "is_reddit_media_domain": false,
          "link_flair_text": null,
          "id": "7idkh2",
          "banned_at_utc": null,
          "mod_reason_title": null,
          "view_count": null,
          "archived": false,
          "clicked": false,
          "media_embed": {},
          "report_reasons": null,
          "author": "Papamje",
          "num_crossposts": 6,
          "saved": false,
          "mod_reports": [],
          "can_mod_post": false,
          "is_crosspostable": true,
          "pinned": false,
          "score": 46886,
          "approved_by": null,
          "over_18": false,
          "hidden": false,
          "preview": {
            "images": [
              {
                "source": {
                  "url": "https://i.redditmedia.com/Cvu37lkNPtOqcpD90wJyiy_b_fu0hZqIRn2trkmCTk8.jpg?s=4126a3e63b355d5c2983e8f592d3ec50",
                  "width": 7360,
                  "height": 4912
                },
                "resolutions": [
                  {
                    "url": "https://i.redditmedia.com/Cvu37lkNPtOqcpD90wJyiy_b_fu0hZqIRn2trkmCTk8.jpg?fit=crop&amp;crop=faces%2Centropy&amp;arh=2&amp;w=108&amp;s=b5dcb80923368ad196c52a1f1d3dcb90",
                    "width": 108,
                    "height": 72
                  },
                  {
                    "url": "https://i.redditmedia.com/Cvu37lkNPtOqcpD90wJyiy_b_fu0hZqIRn2trkmCTk8.jpg?fit=crop&amp;crop=faces%2Centropy&amp;arh=2&amp;w=216&amp;s=7fb9ea01bcb018feb3bc48d4fba632d0",
                    "width": 216,
                    "height": 144
                  },
                  {
                    "url": "https://i.redditmedia.com/Cvu37lkNPtOqcpD90wJyiy_b_fu0hZqIRn2trkmCTk8.jpg?fit=crop&amp;crop=faces%2Centropy&amp;arh=2&amp;w=320&amp;s=d329521209b27ee7dd936ef9c250a347",
                    "width": 320,
                    "height": 213
                  },
                  {
                    "url": "https://i.redditmedia.com/Cvu37lkNPtOqcpD90wJyiy_b_fu0hZqIRn2trkmCTk8.jpg?fit=crop&amp;crop=faces%2Centropy&amp;arh=2&amp;w=640&amp;s=5d5bdf5af92a040ce93b871d74712e21",
                    "width": 640,
                    "height": 427
                  },
                  {
                    "url": "https://i.redditmedia.com/Cvu37lkNPtOqcpD90wJyiy_b_fu0hZqIRn2trkmCTk8.jpg?fit=crop&amp;crop=faces%2Centropy&amp;arh=2&amp;w=960&amp;s=e45fa51873495d255f765daf076b0a45",
                    "width": 960,
                    "height": 640
                  },
                  {
                    "url": "https://i.redditmedia.com/Cvu37lkNPtOqcpD90wJyiy_b_fu0hZqIRn2trkmCTk8.jpg?fit=crop&amp;crop=faces%2Centropy&amp;arh=2&amp;w=1080&amp;s=ad482a27cf8daf8d521727b3f711d650",
                    "width": 1080,
                    "height": 720
                  }
                ],
                "variants": {},
                "id": "9HXmS2XrcdqeKuxRRfG4-IByO0g0U3uFYLcYZSY4DH0"
              }
            ],
            "enabled": false
          },
          "thumbnail": "default",
          "edited": false,
          "link_flair_css_class": null,
          "author_flair_css_class": null,
          "contest_mode": false,
          "gilded": 0,
          "downs": 0,
          "brand_safe": true,
          "secure_media_embed": {},
          "removal_reason": null,
          "post_hint": "link",
          "author_flair_text": null,
          "stickied": false,
          "can_gild": true,
          "thumbnail_height": 93,
          "parent_whitelist_status": "all_ads",
          "name": "t3_7idkh2",
          "spoiler": false,
          "permalink": "/r/worldnews/comments/7idkh2/hackers_steal_70_million_in_bitcoin/",
          "subreddit_type": "public",
          "locked": false,
          "hide_score": false,
          "created": 1512748670.0,
          "url": "http://time.com/money/5053744/hackers-steal-bitcoin-nicehash/?utm_campaign=time&amp;utm_source=twitter.com&amp;utm_medium=social&amp;xid=time_socialflow_twitter",
          "whitelist_status": "all_ads",
          "quarantine": false,
          "title": "Hackers Steal $70 Million in Bitcoin",
          "created_utc": 1512719870.0,
          "subreddit_name_prefixed": "r/worldnews",
          "ups": 46886,
          "media": null,
          "num_comments": 6116,
          "is_self": false,
          "visited": false,
          "mod_note": null,
          "is_video": false,
          "distinguished": null
        }
      },
      {
        "kind": "t3",
        "data": {
          "domain": "v.redd.it",
          "approved_at_utc": null,
          "mod_reason_by": null,
          "banned_by": null,
          "num_reports": null,
          "subreddit_id": "t5_2s3qj",
          "thumbnail_width": 140,
          "subreddit": "Bitcoin",
          "selftext_html": null,
          "selftext": "",
          "likes": null,
          "suggested_sort": null,
          "user_reports": [],
          "secure_media": null,
          "is_reddit_media_domain": true,
          "link_flair_text": "/r/all",
          "id": "7g9cd3",
          "banned_at_utc": null,
          "mod_reason_title": null,
          "view_count": null,
          "archived": false,
          "clicked": false,
          "media_embed": {},
          "report_reasons": null,
          "author": "LeeWallis",
          "num_crossposts": 2,
          "saved": false,
          "mod_reports": [],
          "can_mod_post": false,
          "is_crosspostable": true,
          "pinned": false,
          "score": 48026,
          "approved_by": null,
          "over_18": false,
          "hidden": false,
          "preview": {
            "images": [
              {
                "source": {
                  "url": "https://i.redditmedia.com/L2SHpG8X4X5ukjdNgmCL_3DTEkPPrxrTV6YQltBnqCk.png?s=a040d39b0a090f7c645eb0024a193bb0",
                  "width": 720,
                  "height": 404
                },
                "resolutions": [
                  {
                    "url": "https://i.redditmedia.com/L2SHpG8X4X5ukjdNgmCL_3DTEkPPrxrTV6YQltBnqCk.png?fit=crop&amp;crop=faces%2Centropy&amp;arh=2&amp;w=108&amp;s=c92c3b9454ceab54f3abb1a471eea7a9",
                    "width": 108,
                    "height": 60
                  },
                  {
                    "url": "https://i.redditmedia.com/L2SHpG8X4X5ukjdNgmCL_3DTEkPPrxrTV6YQltBnqCk.png?fit=crop&amp;crop=faces%2Centropy&amp;arh=2&amp;w=216&amp;s=1405e7d01a4f4c94260b6937582e68b2",
                    "width": 216,
                    "height": 121
                  },
                  {
                    "url": "https://i.redditmedia.com/L2SHpG8X4X5ukjdNgmCL_3DTEkPPrxrTV6YQltBnqCk.png?fit=crop&amp;crop=faces%2Centropy&amp;arh=2&amp;w=320&amp;s=4a27615e255c7addf5a755f064ec3d10",
                    "width": 320,
                    "height": 179
                  },
                  {
                    "url": "https://i.redditmedia.com/L2SHpG8X4X5ukjdNgmCL_3DTEkPPrxrTV6YQltBnqCk.png?fit=crop&amp;crop=faces%2Centropy&amp;arh=2&amp;w=640&amp;s=3104a447de1a7cedb350148b666f0639",
                    "width": 640,
                    "height": 359
                  }
                ],
                "variants": {},
                "id": "ahvvd5VN_tlkRh7M5SH1nYnesPsKl1URJxuVzshGrjM"
              }
            ],
            "enabled": false
          },
          "thumbnail": "https://b.thumbs.redditmedia.com/Yu64fsWLTg45B8UZyNqxqiL8er-3A_Jc9cNOfvdCDvo.jpg",
          "edited": false,
          "link_flair_css_class": "all",
          "author_flair_css_class": null,
          "contest_mode": false,
          "gilded": 2,
          "downs": 0,
          "brand_safe": true,
          "secure_media_embed": {},
          "removal_reason": null,
          "post_hint": "hosted:video",
          "author_flair_text": null,
          "stickied": false,
          "can_gild": true,
          "thumbnail_height": 78,
          "parent_whitelist_status": "all_ads",
          "name": "t3_7g9cd3",
          "spoiler": false,
          "permalink": "/r/Bitcoin/comments/7g9cd3/its_official_1_bitcoin_10000_usd/",
          "subreddit_type": "public",
          "locked": false,
          "hide_score": false,
          "created": 1511947524.0,
          "url": "https://v.redd.it/e7io27rdgt001",
          "whitelist_status": "all_ads",
          "quarantine": false,
          "title": "It's official! 1 Bitcoin = $10,000 USD",
          "created_utc": 1511918724.0,
          "subreddit_name_prefixed": "r/Bitcoin",
          "ups": 48026,
          "media": {
            "reddit_video": {
              "fallback_url": "https://v.redd.it/e7io27rdgt001/DASH_1_2_M",
              "height": 360,
              "width": 640,
              "scrubber_media_url": "https://v.redd.it/e7io27rdgt001/DASH_600_K",
              "dash_url": "https://v.redd.it/e7io27rdgt001/DASHPlaylist.mpd",
              "duration": 15,
              "hls_url": "https://v.redd.it/e7io27rdgt001/HLSPlaylist.m3u8",
              "is_gif": false,
              "transcoding_status": "completed"
            }
          },
          "num_comments": 4668,
          "is_self": false,
          "visited": false,
          "mod_note": null,
          "is_video": true,
          "distinguished": null
        }
      },
      {
        "kind": "t3",
        "data": {
          "domain": "self.Jokes",
          "approved_at_utc": null,
          "mod_reason_by": null,
          "banned_by": null,
          "num_reports": null,
          "subreddit_id": "t5_2qh72",
          "thumbnail_width": null,
          "subreddit": "Jokes",
          "selftext_html": "&lt;!-- SC_OFF --&gt;&lt;div class=\"md\"&gt;&lt;p&gt;...for $10.00 worth of Bitcoin currency.&lt;/p&gt;\n\n&lt;p&gt;Dad: $9.67? What do you need $10.32 for?&lt;/p&gt;\n&lt;/div&gt;&lt;!-- SC_ON --&gt;",
          "selftext": "...for $10.00 worth of Bitcoin currency.\n\nDad: $9.67? What do you need $10.32 for?",
          "likes": null,
          "suggested_sort": null,
          "user_reports": [],
          "secure_media": null,
          "is_reddit_media_domain": false,
          "link_flair_text": null,
          "id": "7ieoji",
          "banned_at_utc": null,
          "mod_reason_title": null,
          "view_count": null,
          "archived": false,
          "clicked": false,
          "media_embed": {},
          "report_reasons": null,
          "author": "cubesnack",
          "num_crossposts": 3,
          "saved": false,
          "mod_reports": [],
          "can_mod_post": false,
          "is_crosspostable": true,
          "pinned": false,
          "score": 65632,
          "approved_by": null,
          "over_18": false,
          "hidden": false,
          "thumbnail": "self",
          "edited": false,
          "link_flair_css_class": null,
          "author_flair_css_class": null,
          "contest_mode": false,
          "gilded": 1,
          "downs": 0,
          "brand_safe": true,
          "secure_media_embed": {},
          "removal_reason": null,
          "author_flair_text": null,
          "stickied": false,
          "can_gild": true,
          "thumbnail_height": null,
          "parent_whitelist_status": "all_ads",
          "name": "t3_7ieoji",
          "spoiler": false,
          "permalink": "/r/Jokes/comments/7ieoji/a_boy_asked_his_bitcoininvesting_dad/",
          "subreddit_type": "public",
          "locked": false,
          "hide_score": false,
          "created": 1512765233.0,
          "url": "https://www.reddit.com/r/Jokes/comments/7ieoji/a_boy_asked_his_bitcoininvesting_dad/",
          "whitelist_status": "all_ads",
          "quarantine": false,
          "title": "A boy asked his Bitcoin-investing dad...",
          "created_utc": 1512736433.0,
          "subreddit_name_prefixed": "r/Jokes",
          "ups": 65632,
          "media": null,
          "num_comments": 2297,
          "is_self": true,
          "visited": false,
          "mod_note": null,
          "is_video": false,
          "distinguished": null
        }
      },
      {
        "kind": "t3",
        "data": {
          "domain": "powercompare.co.uk",
          "approved_at_utc": null,
          "mod_reason_by": null,
          "banned_by": null,
          "num_reports": null,
          "subreddit_id": "t5_2tk95",
          "thumbnail_width": 140,
          "subreddit": "dataisbeautiful",
          "selftext_html": null,
          "selftext": "",
          "likes": null,
          "suggested_sort": null,
          "user_reports": [],
          "secure_media": null,
          "is_reddit_media_domain": false,
          "link_flair_text": "OC",
          "id": "7erxlj",
          "banned_at_utc": null,
          "mod_reason_title": null,
          "view_count": null,
          "archived": false,
          "clicked": false,
          "media_embed": {},
          "report_reasons": null,
          "author": "beavershaw",
          "num_crossposts": 4,
          "saved": false,
          "mod_reports": [],
          "can_mod_post": false,
          "is_crosspostable": true,
          "pinned": false,
          "score": 32980,
          "approved_by": null,
          "over_18": false,
          "hidden": false,
          "preview": {
            "images": [
              {
                "source": {
                  "url": "https://i.redditmedia.com/T__fFUNIBemmWENG3QTTKSiw_PBpoGmIaz4MtYS39Kc.jpg?s=2e75c1c5df9c28397d0c2a3dd966be4d",
                  "width": 1000,
                  "height": 535
                },
                "resolutions": [
                  {
                    "url": "https://i.redditmedia.com/T__fFUNIBemmWENG3QTTKSiw_PBpoGmIaz4MtYS39Kc.jpg?fit=crop&amp;crop=faces%2Centropy&amp;arh=2&amp;w=108&amp;s=2f370a36474fa1da399d672cd87dbffc",
                    "width": 108,
                    "height": 57
                  },
                  {
                    "url": "https://i.redditmedia.com/T__fFUNIBemmWENG3QTTKSiw_PBpoGmIaz4MtYS39Kc.jpg?fit=crop&amp;crop=faces%2Centropy&amp;arh=2&amp;w=216&amp;s=aeb31ec6cbcb244e47137d1cc6c19ad5",
                    "width": 216,
                    "height": 115
                  },
                  {
                    "url": "https://i.redditmedia.com/T__fFUNIBemmWENG3QTTKSiw_PBpoGmIaz4MtYS39Kc.jpg?fit=crop&amp;crop=faces%2Centropy&amp;arh=2&amp;w=320&amp;s=e927bda10e24557dd545800481b21885",
                    "width": 320,
                    "height": 171
                  },
                  {
                    "url": "https://i.redditmedia.com/T__fFUNIBemmWENG3QTTKSiw_PBpoGmIaz4MtYS39Kc.jpg?fit=crop&amp;crop=faces%2Centropy&amp;arh=2&amp;w=640&amp;s=6d3491a9d7f6bc72fa2f99b0a806574d",
                    "width": 640,
                    "height": 342
                  },
                  {
                    "url": "https://i.redditmedia.com/T__fFUNIBemmWENG3QTTKSiw_PBpoGmIaz4MtYS39Kc.jpg?fit=crop&amp;crop=faces%2Centropy&amp;arh=2&amp;w=960&amp;s=6b84da8774490f9548584ea04e8af51d",
                    "width": 960,
                    "height": 513
                  }
                ],
                "variants": {},
                "id": "2bgMFaQj8YwuMzagqSbsxybZDtp1CicSqNKWlPRfhC8"
              }
            ],
            "enabled": false
          },
          "thumbnail": "https://b.thumbs.redditmedia.com/pbAoAJ2hKe2t1oM-HrHTGbKCfShEtUYnbIDvJdW6HXU.jpg",
          "edited": false,
          "link_flair_css_class": "oc",
          "author_flair_css_class": "ocmaker",
          "contest_mode": false,
          "gilded": 0,
          "downs": 0,
          "brand_safe": true,
          "secure_media_embed": {},
          "removal_reason": null,
          "post_hint": "link",
          "author_flair_text": "OC: 5",
          "stickied": false,
          "can_gild": true,
          "thumbnail_height": 74,
          "parent_whitelist_status": "all_ads",
          "name": "t3_7erxlj",
          "spoiler": false,
          "permalink": "/r/dataisbeautiful/comments/7erxlj/bitcoin_mining_now_consuming_more_electricity/",
          "subreddit_type": "public",
          "locked": false,
          "hide_score": false,
          "created": 1511395091.0,
          "url": "https://powercompare.co.uk/bitcoin/",
          "whitelist_status": "all_ads",
          "quarantine": false,
          "title": "Bitcoin Mining Now Consuming More Electricity Than 159 Countries Including Ireland &amp; Most Countries In Africa [OC]",
          "created_utc": 1511366291.0,
          "subreddit_name_prefixed": "r/dataisbeautiful",
          "ups": 32980,
          "media": null,
          "num_comments": 3550,
          "is_self": false,
          "visited": false,
          "mod_note": null,
          "is_video": false,
          "distinguished": null
        }
      },
      {
        "kind": "t3",
        "data": {
          "domain": "v.redd.it",
          "approved_at_utc": null,
          "mod_reason_by": null,
          "banned_by": null,
          "num_reports": null,
          "subreddit_id": "t5_2s3qj",
          "thumbnail_width": 140,
          "subreddit": "Bitcoin",
          "selftext_html": null,
          "selftext": "",
          "likes": null,
          "suggested_sort": null,
          "user_reports": [],
          "secure_media": null,
          "is_reddit_media_domain": true,
          "link_flair_text": "/r/all",
          "id": "7le7t9",
          "banned_at_utc": null,
          "mod_reason_title": null,
          "view_count": null,
          "archived": false,
          "clicked": false,
          "media_embed": {},
          "report_reasons": null,
          "author": "danielwilson666",
          "num_crossposts": 1,
          "saved": false,
          "mod_reports": [],
          "can_mod_post": false,
          "is_crosspostable": true,
          "pinned": false,
          "score": 22665,
          "approved_by": null,
          "over_18": false,
          "hidden": false,
          "preview": {
            "images": [
              {
                "source": {
                  "url": "https://i.redditmedia.com/RZPSoPHxaFntDEz1jKk_2DL3ndcHAZ9iXuCLtW3yLP8.png?s=1ab9715e200c589daafeaafae14b7856",
                  "width": 320,
                  "height": 568
                },
                "resolutions": [
                  {
                    "url": "https://i.redditmedia.com/RZPSoPHxaFntDEz1jKk_2DL3ndcHAZ9iXuCLtW3yLP8.png?fit=crop&amp;crop=faces%2Centropy&amp;arh=2&amp;w=108&amp;s=8a2931399471b78911a7467d2119189c",
                    "width": 108,
                    "height": 191
                  },
                  {
                    "url": "https://i.redditmedia.com/RZPSoPHxaFntDEz1jKk_2DL3ndcHAZ9iXuCLtW3yLP8.png?fit=crop&amp;crop=faces%2Centropy&amp;arh=2&amp;w=216&amp;s=dd1c46bb82cbb8f42729a113c1c75e74",
                    "width": 216,
                    "height": 383
                  },
                  {
                    "url": "https://i.redditmedia.com/RZPSoPHxaFntDEz1jKk_2DL3ndcHAZ9iXuCLtW3yLP8.png?fit=crop&amp;crop=faces%2Centropy&amp;arh=2&amp;w=320&amp;s=78a10a82fd0ee4f5deb02b6d31029a8f",
                    "width": 320,
                    "height": 568
                  }
                ],
                "variants": {},
                "id": "kMODCxorX4Gw7bcTeY9vZ6qmmVcZlcKwdCg9qp2HA8c"
              }
            ],
            "enabled": false
          },
          "thumbnail": "https://b.thumbs.redditmedia.com/CniEVZaxP9gs-rZbuTyozBO867hJYEuis1UNR-CeAoU.jpg",
          "edited": false,
          "link_flair_css_class": "all",
          "author_flair_css_class": null,
          "contest_mode": false,
          "gilded": 0,
          "downs": 0,
          "brand_safe": true,
          "secure_media_embed": {},
          "removal_reason": null,
          "post_hint": "hosted:video",
          "author_flair_text": null,
          "stickied": false,
          "can_gild": true,
          "thumbnail_height": 140,
          "parent_whitelist_status": "all_ads",
          "name": "t3_7le7t9",
          "spoiler": false,
          "permalink": "/r/Bitcoin/comments/7le7t9/bitcoin_today/",
          "subreddit_type": "public",
          "locked": false,
          "hide_score": false,
          "created": 1513936324.0,
          "url": "https://v.redd.it/kvztwkfpqd501",
          "whitelist_status": "all_ads",
          "quarantine": false,
          "title": "Bitcoin today",
          "created_utc": 1513907524.0,
          "subreddit_name_prefixed": "r/Bitcoin",
          "ups": 22665,
          "media": {
            "reddit_video": {
              "fallback_url": "https://v.redd.it/kvztwkfpqd501/DASH_2_4_M",
              "height": 480,
              "width": 270,
              "scrubber_media_url": "https://v.redd.it/kvztwkfpqd501/DASH_600_K",
              "dash_url": "https://v.redd.it/kvztwkfpqd501/DASHPlaylist.mpd",
              "duration": 6,
              "hls_url": "https://v.redd.it/kvztwkfpqd501/HLSPlaylist.m3u8",
              "is_gif": false,
              "transcoding_status": "completed"
            }
          },
          "num_comments": 1987,
          "is_self": false,
          "visited": false,
          "mod_note": null,
          "is_video": true,
          "distinguished": null
        }
      },
      {
        "kind": "t3",
        "data": {
          "domain": "arstechnica.com",
          "approved_at_utc": null,
          "mod_reason_by": null,
          "banned_by": null,
          "num_reports": null,
          "subreddit_id": "t5_2t7no",
          "thumbnail_width": 140,
          "subreddit": "Futurology",
          "selftext_html": null,
          "selftext": "",
          "likes": null,
          "suggested_sort": null,
          "user_reports": [],
          "secure_media": null,
          "is_reddit_media_domain": false,
          "link_flair_text": "Energy",
          "id": "7imt05",
          "banned_at_utc": null,
          "mod_reason_title": null,
          "view_count": null,
          "archived": false,
          "clicked": false,
          "media_embed": {},
          "report_reasons": null,
          "author": "speckz",
          "num_crossposts": 1,
          "saved": false,
          "mod_reports": [],
          "can_mod_post": false,
          "is_crosspostable": true,
          "pinned": false,
          "score": 19796,
          "approved_by": null,
          "over_18": false,
          "hidden": false,
          "preview": {
            "images": [
              {
                "source": {
                  "url": "https://i.redditmedia.com/uDC3o8jb_LTSe5z-GJXc6fh9EnEaR-YfOA3Gy42qKW4.jpg?s=cdf9c2687133c78a3aed6452f516f56a",
                  "width": 640,
                  "height": 215
                },
                "resolutions": [
                  {
                    "url": "https://i.redditmedia.com/uDC3o8jb_LTSe5z-GJXc6fh9EnEaR-YfOA3Gy42qKW4.jpg?fit=crop&amp;crop=faces%2Centropy&amp;arh=2&amp;w=108&amp;s=8409b0d89195a40d10a9ce8482aaba67",
                    "width": 108,
                    "height": 36
                  },
                  {
                    "url": "https://i.redditmedia.com/uDC3o8jb_LTSe5z-GJXc6fh9EnEaR-YfOA3Gy42qKW4.jpg?fit=crop&amp;crop=faces%2Centropy&amp;arh=2&amp;w=216&amp;s=8ed400a8466886e521f2445ad2311fcb",
                    "width": 216,
                    "height": 72
                  },
                  {
                    "url": "https://i.redditmedia.com/uDC3o8jb_LTSe5z-GJXc6fh9EnEaR-YfOA3Gy42qKW4.jpg?fit=crop&amp;crop=faces%2Centropy&amp;arh=2&amp;w=320&amp;s=a1944c1b9991b9b8b53e4660427194b6",
                    "width": 320,
                    "height": 107
                  },
                  {
                    "url": "https://i.redditmedia.com/uDC3o8jb_LTSe5z-GJXc6fh9EnEaR-YfOA3Gy42qKW4.jpg?fit=crop&amp;crop=faces%2Centropy&amp;arh=2&amp;w=640&amp;s=5fd3d49d0900d97b561bebc52979d605",
                    "width": 640,
                    "height": 215
                  }
                ],
                "variants": {},
                "id": "y06QNoUqv0kczu2o_NgYIJF8Mj67Z1L4i2UAQC44Dug"
              }
            ],
            "enabled": false
          },
          "thumbnail": "https://b.thumbs.redditmedia.com/qR7eNchDlygFjQex2KywIeFBvu6_gKP5rdrjf7h5yCg.jpg",
          "edited": false,
          "link_flair_css_class": "energy",
          "author_flair_css_class": null,
          "contest_mode": false,
          "gilded": 0,
          "downs": 0,
          "brand_safe": true,
          "secure_media_embed": {},
          "removal_reason": null,
          "post_hint": "link",
          "author_flair_text": null,
          "stickied": false,
          "can_gild": true,
          "thumbnail_height": 47,
          "parent_whitelist_status": "all_ads",
          "name": "t3_7imt05",
          "spoiler": false,
          "permalink": "/r/Futurology/comments/7imt05/bitcoins_insane_energy_consumption_explained_ars/",
          "subreddit_type": "public",
          "locked": false,
          "hide_score": false,
          "created": 1512856130.0,
          "url": "https://arstechnica.com/tech-policy/2017/12/bitcoins-insane-energy-consumption-explained/",
          "whitelist_status": "all_ads",
          "quarantine": false,
          "title": "Bitcoin\u2019s insane energy consumption, explained | Ars Technica - One estimate suggests the Bitcoin network consumes as much energy as Denmark.",
          "created_utc": 1512827330.0,
          "subreddit_name_prefixed": "r/Futurology",
          "ups": 19796,
          "media": null,
          "num_comments": 2505,
          "is_self": false,
          "visited": false,
          "mod_note": null,
          "is_video": false,
          "distinguished": null
        }
      },
      {
        "kind": "t3",
        "data": {
          "domain": "i.redd.it",
          "approved_at_utc": null,
          "mod_reason_by": null,
          "banned_by": null,
          "num_reports": null,
          "subreddit_id": "t5_2s3qj",
          "thumbnail_width": 140,
          "subreddit": "Bitcoin",
          "selftext_html": null,
          "selftext": "",
          "likes": null,
          "suggested_sort": null,
          "user_reports": [],
          "secure_media": null,
          "is_reddit_media_domain": true,
          "link_flair_text": "/r/all",
          "id": "7kqq1j",
          "banned_at_utc": null,
          "mod_reason_title": null,
          "view_count": null,
          "archived": false,
          "clicked": false,
          "media_embed": {},
          "report_reasons": null,
          "author": "JonathanMauri",
          "num_crossposts": 0,
          "saved": false,
          "mod_reports": [],
          "can_mod_post": false,
          "is_crosspostable": true,
          "pinned": false,
          "score": 18535,
          "approved_by": null,
          "over_18": false,
          "hidden": false,
          "preview": {
            "images": [
              {
                "source": {
                  "url": "https://i.redditmedia.com/HYEc_Iexj-H5ahlFjcTv0ZGPw8tW4HfGMqc73VSx_o4.jpg?s=8adcd00b96b9ede1bf14f238c204e539",
                  "width": 2988,
                  "height": 5312
                },
                "resolutions": [
                  {
                    "url": "https://i.redditmedia.com/HYEc_Iexj-H5ahlFjcTv0ZGPw8tW4HfGMqc73VSx_o4.jpg?fit=crop&amp;crop=faces%2Centropy&amp;arh=2&amp;w=108&amp;s=9fc8d9e19fb4f5fef76e04f930d1b6d6",
                    "width": 108,
                    "height": 192
                  },
                  {
                    "url": "https://i.redditmedia.com/HYEc_Iexj-H5ahlFjcTv0ZGPw8tW4HfGMqc73VSx_o4.jpg?fit=crop&amp;crop=faces%2Centropy&amp;arh=2&amp;w=216&amp;s=df4a5771d5a966b76e1e8a9a33c61fd4",
                    "width": 216,
                    "height": 384
                  },
                  {
                    "url": "https://i.redditmedia.com/HYEc_Iexj-H5ahlFjcTv0ZGPw8tW4HfGMqc73VSx_o4.jpg?fit=crop&amp;crop=faces%2Centropy&amp;arh=2&amp;w=320&amp;s=87b1e25a6cb80fdd8e7ee2b8cfb885f7",
                    "width": 320,
                    "height": 568
                  },
                  {
                    "url": "https://i.redditmedia.com/HYEc_Iexj-H5ahlFjcTv0ZGPw8tW4HfGMqc73VSx_o4.jpg?fit=crop&amp;crop=faces%2Centropy&amp;arh=2&amp;w=640&amp;s=965a88758e28ac2bfb0a3a366ee04790",
                    "width": 640,
                    "height": 1137
                  },
                  {
                    "url": "https://i.redditmedia.com/HYEc_Iexj-H5ahlFjcTv0ZGPw8tW4HfGMqc73VSx_o4.jpg?fit=crop&amp;crop=faces%2Centropy&amp;arh=2&amp;w=960&amp;s=628f753d7c11ce218d66c65d6882ad5b",
                    "width": 960,
                    "height": 1706
                  },
                  {
                    "url": "https://i.redditmedia.com/HYEc_Iexj-H5ahlFjcTv0ZGPw8tW4HfGMqc73VSx_o4.jpg?fit=crop&amp;crop=faces%2Centropy&amp;arh=2&amp;w=1080&amp;s=853cc5d3a7023e217a304c1f4d1d72b6",
                    "width": 1080,
                    "height": 1920
                  }
                ],
                "variants": {},
                "id": "uC6Rc6I2V6jCF6EhMG5OURoKXMZ_V4o-lMSC7yRpO4U"
              }
            ],
            "enabled": true
          },
          "thumbnail": "https://b.thumbs.redditmedia.com/IQjD97sA3TM2pwbN-N_Hyh-yVcXMVZdZZVagPUNCqdo.jpg",
          "edited": false,
          "link_flair_css_class": "all",
          "author_flair_css_class": "noob",
          "contest_mode": false,
          "gilded": 1,
          "downs": 0,
          "brand_safe": true,
          "secure_media_embed": {},
          "removal_reason": null,
          "post_hint": "image",
          "author_flair_text": "redditor for 3 months",
          "stickied": false,
          "can_gild": true,
          "thumbnail_height": 140,
          "parent_whitelist_status": "all_ads",
          "name": "t3_7kqq1j",
          "spoiler": false,
          "permalink": "/r/Bitcoin/comments/7kqq1j/sold_some_bitcoin_to_buy_my_new_best_bud/",
          "subreddit_type": "public",
          "locked": false,
          "hide_score": false,
          "created": 1513684581.0,
          "url": "https://i.redd.it/16bgn309ys401.jpg",
          "whitelist_status": "all_ads",
          "quarantine": false,
          "title": "Sold some bitcoin to buy my new best bud \ud83e\udd17",
          "created_utc": 1513655781.0,
          "subreddit_name_prefixed": "r/Bitcoin",
          "ups": 18535,
          "media": null,
          "num_comments": 1784,
          "is_self": false,
          "visited": false,
          "mod_note": null,
          "is_video": false,
          "distinguished": null
        }
      },
      {
        "kind": "t3",
        "data": {
          "domain": "i.redd.it",
          "approved_at_utc": null,
          "mod_reason_by": null,
          "banned_by": null,
          "num_reports": null,
          "subreddit_id": "t5_2tk95",
          "thumbnail_width": 140,
          "subreddit": "dataisbeautiful",
          "selftext_html": null,
          "selftext": "",
          "likes": null,
          "suggested_sort": null,
          "user_reports": [],
          "secure_media": null,
          "is_reddit_media_domain": true,
          "link_flair_text": "OC",
          "id": "7ldxy7",
          "banned_at_utc": null,
          "mod_reason_title": null,
          "view_count": null,
          "archived": false,
          "clicked": false,
          "media_embed": {},
          "report_reasons": null,
          "author": "teleksterling",
          "num_crossposts": 2,
          "saved": false,
          "mod_reports": [],
          "can_mod_post": false,
          "is_crosspostable": true,
          "pinned": false,
          "score": 21700,
          "approved_by": null,
          "over_18": false,
          "hidden": false,
          "preview": {
            "images": [
              {
                "source": {
                  "url": "https://i.redditmedia.com/BFr4lzEmcMDcB3xJJJvbw_dmsbuzPwh6paku1emej1A.png?s=42ae73c80be6177ab39e735b4d774aa6",
                  "width": 996,
                  "height": 556
                },
                "resolutions": [
                  {
                    "url": "https://i.redditmedia.com/BFr4lzEmcMDcB3xJJJvbw_dmsbuzPwh6paku1emej1A.png?fit=crop&amp;crop=faces%2Centropy&amp;arh=2&amp;w=108&amp;s=41b4b5502113b57acfdfe22c4ef16da1",
                    "width": 108,
                    "height": 60
                  },
                  {
                    "url": "https://i.redditmedia.com/BFr4lzEmcMDcB3xJJJvbw_dmsbuzPwh6paku1emej1A.png?fit=crop&amp;crop=faces%2Centropy&amp;arh=2&amp;w=216&amp;s=4c34b87fa64190a98fbba85554dde3b8",
                    "width": 216,
                    "height": 120
                  },
                  {
                    "url": "https://i.redditmedia.com/BFr4lzEmcMDcB3xJJJvbw_dmsbuzPwh6paku1emej1A.png?fit=crop&amp;crop=faces%2Centropy&amp;arh=2&amp;w=320&amp;s=cecc680d36af758d77352ec75811ecac",
                    "width": 320,
                    "height": 178
                  },
                  {
                    "url": "https://i.redditmedia.com/BFr4lzEmcMDcB3xJJJvbw_dmsbuzPwh6paku1emej1A.png?fit=crop&amp;crop=faces%2Centropy&amp;arh=2&amp;w=640&amp;s=7e0e92f906da7abb72bd02100769bbd8",
                    "width": 640,
                    "height": 357
                  },
                  {
                    "url": "https://i.redditmedia.com/BFr4lzEmcMDcB3xJJJvbw_dmsbuzPwh6paku1emej1A.png?fit=crop&amp;crop=faces%2Centropy&amp;arh=2&amp;w=960&amp;s=264b9604ada486d2f6d97b718b2e69c7",
                    "width": 960,
                    "height": 535
                  }
                ],
                "variants": {},
                "id": "1kxN5LWTfHV5Nrg0sKn8YL9qkUo9V-lwFTwMVAAjCfI"
              }
            ],
            "enabled": true
          },
          "thumbnail": "https://b.thumbs.redditmedia.com/AuEraGtW-mit6ACHhcFl1TEYGrLJmQtEUtJwc-gW3mA.jpg",
          "edited": false,
          "link_flair_css_class": "oc",
          "author_flair_css_class": "ocmaker",
          "contest_mode": false,
          "gilded": 0,
          "downs": 0,
          "brand_safe": true,
          "secure_media_embed": {},
          "removal_reason": null,
          "post_hint": "image",
          "author_flair_text": "OC: 1",
          "stickied": false,
          "can_gild": true,
          "thumbnail_height": 78,
          "parent_whitelist_status": "all_ads",
          "name": "t3_7ldxy7",
          "spoiler": false,
          "permalink": "/r/dataisbeautiful/comments/7ldxy7/2017_bitcoin_value_versus_google_search_interest/",
          "subreddit_type": "public",
          "locked": false,
          "hide_score": false,
          "created": 1513933379.0,
          "url": "https://i.redd.it/trphp6yshd501.png",
          "whitelist_status": "all_ads",
          "quarantine": false,
          "title": "2017 Bitcoin value versus Google search interest [OC]",
          "created_utc": 1513904579.0,
          "subreddit_name_prefixed": "r/dataisbeautiful",
          "ups": 21700,
          "media": null,
          "num_comments": 1437,
          "is_self": false,
          "visited": false,
          "mod_note": null,
          "is_video": false,
          "distinguished": null
        }
      },
      {
        "kind": "t3",
        "data": {
          "domain": "i.imgur.com",
          "approved_at_utc": null,
          "mod_reason_by": null,
          "banned_by": null,
          "num_reports": null,
          "subreddit_id": "t5_2t5y3",
          "thumbnail_width": 140,
          "subreddit": "reactiongifs",
          "selftext_html": null,
          "selftext": "",
          "likes": null,
          "suggested_sort": null,
          "user_reports": [],
          "secure_media": null,
          "is_reddit_media_domain": false,
          "link_flair_text": "/r/all",
          "id": "7gmw7w",
          "banned_at_utc": null,
          "mod_reason_title": null,
          "view_count": null,
          "archived": false,
          "clicked": false,
          "media_embed": {},
          "report_reasons": null,
          "author": "Marswhalbaconattor",
          "num_crossposts": 0,
          "saved": false,
          "mod_reports": [],
          "can_mod_post": false,
          "is_crosspostable": true,
          "pinned": false,
          "score": 36047,
          "approved_by": null,
          "over_18": false,
          "hidden": false,
          "preview": {
            "images": [
              {
                "source": {
                  "url": "https://i.redditmedia.com/MOff3NXyVOgozA9mdhhpESJyeJnXnAfP74n6mOdjpno.gif?fm=jpg&amp;s=84f6356262d074150ace473cc8bedc9d",
                  "width": 728,
                  "height": 484
                },
                "resolutions": [
                  {
                    "url": "https://i.redditmedia.com/MOff3NXyVOgozA9mdhhpESJyeJnXnAfP74n6mOdjpno.gif?fit=crop&amp;crop=faces%2Centropy&amp;arh=2&amp;w=108&amp;fm=jpg&amp;s=fd2d40b0fdfdbbbd51e088236e6a0d73",
                    "width": 108,
                    "height": 71
                  },
                  {
                    "url": "https://i.redditmedia.com/MOff3NXyVOgozA9mdhhpESJyeJnXnAfP74n6mOdjpno.gif?fit=crop&amp;crop=faces%2Centropy&amp;arh=2&amp;w=216&amp;fm=jpg&amp;s=8b4815b4e77cb950cd765cf342b732bd",
                    "width": 216,
                    "height": 143
                  },
                  {
                    "url": "https://i.redditmedia.com/MOff3NXyVOgozA9mdhhpESJyeJnXnAfP74n6mOdjpno.gif?fit=crop&amp;crop=faces%2Centropy&amp;arh=2&amp;w=320&amp;fm=jpg&amp;s=4959c4b6c0f862dd6d356c5682d540af",
                    "width": 320,
                    "height": 212
                  },
                  {
                    "url": "https://i.redditmedia.com/MOff3NXyVOgozA9mdhhpESJyeJnXnAfP74n6mOdjpno.gif?fit=crop&amp;crop=faces%2Centropy&amp;arh=2&amp;w=640&amp;fm=jpg&amp;s=3ccbd0b7fe17f1813fc9400dd234eda7",
                    "width": 640,
                    "height": 425
                  }
                ],
                "variants": {
                  "gif": {
                    "source": {
                      "url": "https://g.redditmedia.com/MOff3NXyVOgozA9mdhhpESJyeJnXnAfP74n6mOdjpno.gif?s=6bed4bc62be336a4228055b6068a9e1b",
                      "width": 728,
                      "height": 484
                    },
                    "resolutions": [
                      {
                        "url": "https://g.redditmedia.com/MOff3NXyVOgozA9mdhhpESJyeJnXnAfP74n6mOdjpno.gif?fit=crop&amp;crop=faces%2Centropy&amp;arh=2&amp;w=108&amp;s=7c58dd9e0217c2d945a2a9b780adfd12",
                        "width": 108,
                        "height": 71
                      },
                      {
                        "url": "https://g.redditmedia.com/MOff3NXyVOgozA9mdhhpESJyeJnXnAfP74n6mOdjpno.gif?fit=crop&amp;crop=faces%2Centropy&amp;arh=2&amp;w=216&amp;s=63aa954c5d5c2a1d9d7813d221fae946",
                        "width": 216,
                        "height": 143
                      },
                      {
                        "url": "https://g.redditmedia.com/MOff3NXyVOgozA9mdhhpESJyeJnXnAfP74n6mOdjpno.gif?fit=crop&amp;crop=faces%2Centropy&amp;arh=2&amp;w=320&amp;s=57fc98bdee6129a01608cd7d285e5744",
                        "width": 320,
                        "height": 212
                      },
                      {
                        "url": "https://g.redditmedia.com/MOff3NXyVOgozA9mdhhpESJyeJnXnAfP74n6mOdjpno.gif?fit=crop&amp;crop=faces%2Centropy&amp;arh=2&amp;w=640&amp;s=2926468959430f4665d67b1693b489a7",
                        "width": 640,
                        "height": 425
                      }
                    ]
                  },
                  "mp4": {
                    "source": {
                      "url": "https://g.redditmedia.com/MOff3NXyVOgozA9mdhhpESJyeJnXnAfP74n6mOdjpno.gif?fm=mp4&amp;mp4-fragmented=false&amp;s=f9ec3b10b88f14315d36a326ba7f59da",
                      "width": 728,
                      "height": 484
                    },
                    "resolutions": [
                      {
                        "url": "https://g.redditmedia.com/MOff3NXyVOgozA9mdhhpESJyeJnXnAfP74n6mOdjpno.gif?fit=crop&amp;crop=faces%2Centropy&amp;arh=2&amp;w=108&amp;fm=mp4&amp;mp4-fragmented=false&amp;s=9169a8388089607740a0273df7e5b9d4",
                        "width": 108,
                        "height": 71
                      },
                      {
                        "url": "https://g.redditmedia.com/MOff3NXyVOgozA9mdhhpESJyeJnXnAfP74n6mOdjpno.gif?fit=crop&amp;crop=faces%2Centropy&amp;arh=2&amp;w=216&amp;fm=mp4&amp;mp4-fragmented=false&amp;s=f34c09ff1918177164f38d0f5c92b5b5",
                        "width": 216,
                        "height": 143
                      },
                      {
                        "url": "https://g.redditmedia.com/MOff3NXyVOgozA9mdhhpESJyeJnXnAfP74n6mOdjpno.gif?fit=crop&amp;crop=faces%2Centropy&amp;arh=2&amp;w=320&amp;fm=mp4&amp;mp4-fragmented=false&amp;s=bb8aef299c923e5c1d9dbbbcd5a35301",
                        "width": 320,
                        "height": 212
                      },
                      {
                        "url": "https://g.redditmedia.com/MOff3NXyVOgozA9mdhhpESJyeJnXnAfP74n6mOdjpno.gif?fit=crop&amp;crop=faces%2Centropy&amp;arh=2&amp;w=640&amp;fm=mp4&amp;mp4-fragmented=false&amp;s=3fea829070efec1482c5ab279f6bce49",
                        "width": 640,
                        "height": 425
                      }
                    ]
                  }
                },
                "id": "aVqNVWgxQLIqEJ2u1nHBIUU_FS6OeprWrbzn0hfPswk"
              }
            ],
            "enabled": true
          },
          "thumbnail": "https://b.thumbs.redditmedia.com/eACF-1InEKHAjxHjSIj7K6QJgYs8muKKpB-VbUj59Nk.jpg",
          "edited": false,
          "link_flair_css_class": "2",
          "author_flair_css_class": null,
          "contest_mode": false,
          "gilded": 0,
          "downs": 0,
          "brand_safe": true,
          "secure_media_embed": {},
          "removal_reason": null,
          "post_hint": "link",
          "author_flair_text": null,
          "stickied": false,
          "can_gild": true,
          "thumbnail_height": 93,
          "parent_whitelist_status": "all_ads",
          "name": "t3_7gmw7w",
          "spoiler": false,
          "permalink": "/r/reactiongifs/comments/7gmw7w/mrw_i_realize_back_in_2009_i_bought_100_million/",
          "subreddit_type": "public",
          "locked": false,
          "hide_score": false,
          "created": 1512082879.0,
          "url": "https://i.imgur.com/oZ5ikWI.gifv",
          "whitelist_status": "all_ads",
          "quarantine": false,
          "title": "MRW I realize back in 2009 I bought 100 million Dollars worth of weed in Bitcoin's current price.",
          "created_utc": 1512054079.0,
          "subreddit_name_prefixed": "r/reactiongifs",
          "ups": 36047,
          "media": null,
          "num_comments": 1420,
          "is_self": false,
          "visited": false,
          "mod_note": null,
          "is_video": false,
          "distinguished": null
        }
      },
      {
        "kind": "t3",
        "data": {
          "domain": "self.Bitcoin",
          "approved_at_utc": null,
          "mod_reason_by": null,
          "banned_by": null,
          "num_reports": null,
          "subreddit_id": "t5_2s3qj",
          "thumbnail_width": null,
          "subreddit": "Bitcoin",
          "selftext_html": "&lt;!-- SC_OFF --&gt;&lt;div class=\"md\"&gt;&lt;p&gt;On November 28, 2017, the US Senate, Committee of the Judiciary held a hearing regarding bill S.1241: Modernizing AML Laws to Combat Money Laundering and Terrorist Financing. Despite little attention being given to digital currencies during the hearing, bill S.1241 itself would amend the definition of \u2018financial institution\u2019 in the United States Code to include digital currencies and digital exchanges. This could have alarming consequences for users of cryptocurrencies both in the US and abroad.&lt;/p&gt;\n\n&lt;p&gt;Bill S.1241 would amend the definition of \u2018financial institution,\u2019 in Section 5312(a) of title 31, United States Code, to include \u201can issuer, redeemer, or cashier of prepaid access devices, digital currency, or any digital exchanger or tumbler of digital currency.\u201d Currently, the definition of \u2018financial institution\u2019 includes banks, trust companies, credit unions, currency exchanges, etc.&lt;/p&gt;\n\n&lt;p&gt;In her introduction, Mrs. Feinstein, Ranking Member of the Judiciary Committee, said (31:35), \u201cThe bill criminalizes intentionally concealing ownership or control of a bank account.\u201d Although, during the hearing, no further clarifications were given as to the effects this would have on the cryptocurrency community, based on the amended definition of \u2018financial institution\u2019, it seems clear enough that the bill would \u201ccriminalize [those] intentionally concealing ownership or control of a [digital currency or digital exchange] account.\u201d Wow. Let this sink in for a minute\u2026&lt;/p&gt;\n\n&lt;p&gt;The US senate is proposing a bill to make criminals out of anyone intentionally concealing ownership or control of a digital currency or digital exchange account. What\u2019s more, according to the hearing\u2019s prolonged discussion of US law enforcement\u2019s handling of foreign banks and financial institutions, this bill is certain to have far-reaching effects on not only US citizens but the global community as a whole.&lt;/p&gt;\n\n&lt;p&gt;If the above statement describes you, it is strongly recommended that you watch the hearing with this new definition of \u2018financial institution\u2019 in mind. If you\u2019ve already watched the hearing, watch it again, but this time replace all mentions of \u2018banks and financial institutions\u2019 with \u2018digital currencies and digital exchanges.\u2019 The implications are really rather alarming.&lt;/p&gt;\n\n&lt;p&gt;Interestingly enough, Ms. Kathryn Haun Rodriguez, a Coinbase Board of Directors Member, made absolutely no mention of digital currencies or digital exchanges in her testimony; nor was she asked any questions pertaining to these topics.&lt;/p&gt;\n\n&lt;p&gt;Conversely, in her July 2017 written testimony to the US House of Representatives Committee on Financial Services and Subcommittee on Terrorism and Illicit Finance, she stated that some users of digital currencies use them \u201cto conceal and move illicit proceeds because of the perception that virtual currency is untraceable.\u201d&lt;/p&gt;\n\n&lt;p&gt;Also in her prior written testimony, she stated that \u201cthe FinTech industry could be a very helpful partner to the government in addressing national security concerns;\u201d that \u201cinvestigators like digital footprints and that is exactly what digital currencies provide;\u201d and that \u201cof course, we can only follow the money to an individual or group if they used a Regulated exchange, one that follows basic AML/KYC laws.\u201d Advertisement&lt;/p&gt;\n\n&lt;p&gt;Contrary to the bill itself, the hearing was noticeably lacking in references to cryptocurrencies; although there was some limited mention of such.&lt;/p&gt;\n\n&lt;p&gt;Ms. Klobuchar (2:16:58):&lt;/p&gt;\n\n&lt;p&gt;\u201cIs this transition we\u2019re seeing from cash to digital going to make it easier or harder for law enforcement to track these money laundering cases, and you think these drug cartels are gonna start going cash free, and what do you do about it?\u201d\nMr. John A. Cassara (2:17:15):&lt;/p&gt;\n\n&lt;p&gt;\u201cSenator, I\u2019m just glad I had my career when I did because I don\u2019t know what I\u2019d do trying to follow the money when it comes to digital currencies, it\u2019s extremely, extremely challenging\u2026I think if you look at the metrics, the metrics suggest today [that] digital currencies are a small fraction of the threat that we face. That\u2019s not to say it\u2019s gonna be the case in 5-10 years from now. We\u2019re right at a crossroads, and it\u2019s going to be very, very interesting to see what goes forward.\u201d\nDue to the probable negative implications for the global cryptocurrency community, hopefully the interpretation of bill S.1241 in this article is proven incorrect; however, at this point, it seems fairly clear (at least to me, the author) that this is the intent behind the bill. If this is indeed the case, it will be the most recent attack on a growing list of State-backed attacks against the crypto-community.&lt;/p&gt;\n\n&lt;p&gt;Furthermore, from the noticeable lack of references made to digital currencies during the hearing, it would appear this bill is yet another underhanded attempt of the US Government to further erode global freedoms and civil liberties, which markedly began with the introduction of the Patriot Act, shortly after the 9/11 attacks.&lt;/p&gt;\n\n&lt;p&gt;As Tone Vayes mentioned, it would have been nice if Andreas Antonopoulos was there to impart some of the wisdom he shared with the Canadian Senate, on October 8, 2014.&lt;/p&gt;\n\n&lt;p&gt;Tone Vayes\u2019 summation*: \u201cIt\u2019s bad\u2026I think it\u2019s gonna end in a very confrontational way between Bitcoin\u2014even Bitcoin holders and users\u2014and the US Government.\u201d&lt;/p&gt;\n\n&lt;p&gt;Jimmy Song\u2019s summation*: \u201cYeah, the nice thing about laws is they take a long time\u2026\u201d&lt;/p&gt;\n\n&lt;p&gt;Indeed it will be \u201cvery, very interesting to see what goes forward.\u201d If this bill passes, how many of you future criminals out there are still set on hodling?&lt;/p&gt;\n\n&lt;p&gt;*to be fair, neither had yet watched the entire hearing.&lt;/p&gt;\n\n&lt;p&gt;Full Disclosure: Landon Mutch is a contributor to the Lightning Network, a layer-two Bitcoin protocol, also BTCManager is scamming it\u2019s writers and not paying them :(.&lt;/p&gt;\n&lt;/div&gt;&lt;!-- SC_ON --&gt;",
          "selftext": "On November 28, 2017, the US Senate, Committee of the Judiciary held a hearing regarding bill S.1241: Modernizing AML Laws to Combat Money Laundering and Terrorist Financing. Despite little attention being given to digital currencies during the hearing, bill S.1241 itself would amend the definition of \u2018financial institution\u2019 in the United States Code to include digital currencies and digital exchanges. This could have alarming consequences for users of cryptocurrencies both in the US and abroad.\n\nBill S.1241 would amend the definition of \u2018financial institution,\u2019 in Section 5312(a) of title 31, United States Code, to include \u201can issuer, redeemer, or cashier of prepaid access devices, digital currency, or any digital exchanger or tumbler of digital currency.\u201d Currently, the definition of \u2018financial institution\u2019 includes banks, trust companies, credit unions, currency exchanges, etc.\n\nIn her introduction, Mrs. Feinstein, Ranking Member of the Judiciary Committee, said (31:35), \u201cThe bill criminalizes intentionally concealing ownership or control of a bank account.\u201d Although, during the hearing, no further clarifications were given as to the effects this would have on the cryptocurrency community, based on the amended definition of \u2018financial institution\u2019, it seems clear enough that the bill would \u201ccriminalize [those] intentionally concealing ownership or control of a [digital currency or digital exchange] account.\u201d Wow. Let this sink in for a minute\u2026\n\nThe US senate is proposing a bill to make criminals out of anyone intentionally concealing ownership or control of a digital currency or digital exchange account. What\u2019s more, according to the hearing\u2019s prolonged discussion of US law enforcement\u2019s handling of foreign banks and financial institutions, this bill is certain to have far-reaching effects on not only US citizens but the global community as a whole.\n\nIf the above statement describes you, it is strongly recommended that you watch the hearing with this new definition of \u2018financial institution\u2019 in mind. If you\u2019ve already watched the hearing, watch it again, but this time replace all mentions of \u2018banks and financial institutions\u2019 with \u2018digital currencies and digital exchanges.\u2019 The implications are really rather alarming.\n\nInterestingly enough, Ms. Kathryn Haun Rodriguez, a Coinbase Board of Directors Member, made absolutely no mention of digital currencies or digital exchanges in her testimony; nor was she asked any questions pertaining to these topics.\n\nConversely, in her July 2017 written testimony to the US House of Representatives Committee on Financial Services and Subcommittee on Terrorism and Illicit Finance, she stated that some users of digital currencies use them \u201cto conceal and move illicit proceeds because of the perception that virtual currency is untraceable.\u201d\n\nAlso in her prior written testimony, she stated that \u201cthe FinTech industry could be a very helpful partner to the government in addressing national security concerns;\u201d that \u201cinvestigators like digital footprints and that is exactly what digital currencies provide;\u201d and that \u201cof course, we can only follow the money to an individual or group if they used a Regulated exchange, one that follows basic AML/KYC laws.\u201d Advertisement\n\nContrary to the bill itself, the hearing was noticeably lacking in references to cryptocurrencies; although there was some limited mention of such.\n\nMs. Klobuchar (2:16:58):\n\n\u201cIs this transition we\u2019re seeing from cash to digital going to make it easier or harder for law enforcement to track these money laundering cases, and you think these drug cartels are gonna start going cash free, and what do you do about it?\u201d\nMr. John A. Cassara (2:17:15):\n\n\u201cSenator, I\u2019m just glad I had my career when I did because I don\u2019t know what I\u2019d do trying to follow the money when it comes to digital currencies, it\u2019s extremely, extremely challenging\u2026I think if you look at the metrics, the metrics suggest today [that] digital currencies are a small fraction of the threat that we face. That\u2019s not to say it\u2019s gonna be the case in 5-10 years from now. We\u2019re right at a crossroads, and it\u2019s going to be very, very interesting to see what goes forward.\u201d\nDue to the probable negative implications for the global cryptocurrency community, hopefully the interpretation of bill S.1241 in this article is proven incorrect; however, at this point, it seems fairly clear (at least to me, the author) that this is the intent behind the bill. If this is indeed the case, it will be the most recent attack on a growing list of State-backed attacks against the crypto-community.\n\nFurthermore, from the noticeable lack of references made to digital currencies during the hearing, it would appear this bill is yet another underhanded attempt of the US Government to further erode global freedoms and civil liberties, which markedly began with the introduction of the Patriot Act, shortly after the 9/11 attacks.\n\nAs Tone Vayes mentioned, it would have been nice if Andreas Antonopoulos was there to impart some of the wisdom he shared with the Canadian Senate, on October 8, 2014.\n\nTone Vayes\u2019 summation*: \u201cIt\u2019s bad\u2026I think it\u2019s gonna end in a very confrontational way between Bitcoin\u2014even Bitcoin holders and users\u2014and the US Government.\u201d\n\nJimmy Song\u2019s summation*: \u201cYeah, the nice thing about laws is they take a long time\u2026\u201d\n\nIndeed it will be \u201cvery, very interesting to see what goes forward.\u201d If this bill passes, how many of you future criminals out there are still set on hodling?\n\n*to be fair, neither had yet watched the entire hearing.\n\nFull Disclosure: Landon Mutch is a contributor to the Lightning Network, a layer-two Bitcoin protocol, also BTCManager is scamming it\u2019s writers and not paying them :(.",
          "likes": null,
          "suggested_sort": null,
          "user_reports": [],
          "secure_media": null,
          "is_reddit_media_domain": false,
          "link_flair_text": "/r/all",
          "id": "7iey6q",
          "banned_at_utc": null,
          "mod_reason_title": null,
          "view_count": null,
          "archived": false,
          "clicked": false,
          "media_embed": {},
          "report_reasons": null,
          "author": "EaFaer",
          "num_crossposts": 5,
          "saved": false,
          "mod_reports": [],
          "can_mod_post": false,
          "is_crosspostable": true,
          "pinned": false,
          "score": 13914,
          "approved_by": null,
          "over_18": false,
          "hidden": false,
          "thumbnail": "self",
          "edited": false,
          "link_flair_css_class": "all",
          "author_flair_css_class": null,
          "contest_mode": false,
          "gilded": 1,
          "downs": 0,
          "brand_safe": true,
          "secure_media_embed": {},
          "removal_reason": null,
          "author_flair_text": null,
          "stickied": false,
          "can_gild": true,
          "thumbnail_height": null,
          "parent_whitelist_status": "all_ads",
          "name": "t3_7iey6q",
          "spoiler": false,
          "permalink": "/r/Bitcoin/comments/7iey6q/us_senate_bill_s1241_to_criminalize_concealed/",
          "subreddit_type": "public",
          "locked": false,
          "hide_score": false,
          "created": 1512768490.0,
          "url": "https://www.reddit.com/r/Bitcoin/comments/7iey6q/us_senate_bill_s1241_to_criminalize_concealed/",
          "whitelist_status": "all_ads",
          "quarantine": false,
          "title": "Us Senate Bill S.1241 to criminalize concealed ownership of Bitcoin",
          "created_utc": 1512739690.0,
          "subreddit_name_prefixed": "r/Bitcoin",
          "ups": 13914,
          "media": null,
          "num_comments": 1663,
          "is_self": true,
          "visited": false,
          "mod_note": null,
          "is_video": false,
          "distinguished": null
        }
      }
    ],
    "before": null
  }
}